<svg width="100" height="100" viewBox="0 0 100 100" fill="none" xmlns="http://www.w3.org/2000/svg">
<g clip-path="url(#clip0)">
<path d="M5.36 44.6396C3.93844 44.6396 2.5751 45.2044 1.56991 46.2096C0.564713 47.2148 0 48.5781 0 49.9996H0C0 51.4212 0.564713 52.7845 1.56991 53.7897C2.5751 54.7949 3.93844 55.3596 5.36 55.3596H94.64C96.0616 55.3596 97.4249 54.7949 98.4301 53.7897C99.4353 52.7845 100 51.4212 100 49.9996V49.9996C100 48.5781 99.4353 47.2148 98.4301 46.2096C97.4249 45.2044 96.0616 44.6396 94.64 44.6396H5.36Z" fill="#333333"/>
<path d="M0 23.2104C0 24.6319 0.564713 25.9952 1.56991 27.0004C2.5751 28.0056 3.93844 28.5704 5.36 28.5704H61.36C62.7816 28.5704 64.1449 28.0056 65.1501 27.0004C66.1553 25.9952 66.72 24.6319 66.72 23.2104C66.7174 21.7905 66.1515 20.4298 65.1466 19.4267C64.1417 18.4237 62.7798 17.8603 61.36 17.8604H5.36C3.94017 17.8603 2.57835 18.4237 1.57344 19.4267C0.568531 20.4298 0.00264894 21.7905 0 23.2104H0Z" fill="#333333"/>
<path d="M0 76.35C0 77.7716 0.564713 79.1349 1.56991 80.1401C2.5751 81.1453 3.93844 81.71 5.36 81.71H61.36C62.7816 81.71 64.1449 81.1453 65.1501 80.1401C66.1553 79.1349 66.72 77.7716 66.72 76.35C66.7174 74.9302 66.1515 73.5694 65.1466 72.5664C64.1417 71.5633 62.7798 71 61.36 71H5.36C3.94017 71 2.57835 71.5633 1.57344 72.5664C0.568531 73.5694 0.00264894 74.9302 0 76.35H0Z" fill="#333333"/>
</g>
<defs>
<clipPath id="clip0">
<rect width="100" height="100" fill="white"/>
</clipPath>
</defs>
</svg>
